EWB_H4
…
library(popbio)
#getting just the age, fare and survivorship columns together without any nas#
vartitanic <- titanic %>% select(1, 3, 5, 9, 15, 2)
vartitanic

## # A tibble: 1,309 x 6
##    pclass Residence   age  fare Gender survived
##    <fct>  <fct>     <dbl> <dbl> <fct>     <dbl>
##  1 3      0            42  7.55 0             0
##  2 3      0            13 20.2  0             0
##  3 3      0            16 20.2  0             0
##  4 3      0            35 20.2  1             1
##  5 3      2            16  7.65 1             1
##  6 3      0            25  7.65 0             1
##  7 2      2            30 24    0             0
##  8 2      2            28 24    1             1
##  9 3      2            20  7.92 0             1
## 10 3      2            18  7.23 1             1
## #  with 1,299 more rows

titanona<-drop_na(vartitanic)
titanona

## # A tibble: 1,045 x 6
##    pclass Residence   age  fare Gender survived
##    <fct>  <fct>     <dbl> <dbl> <fct>     <dbl>
##  1 3      0            42  7.55 0             0
##  2 3      0            13 20.2  0             0
##  3 3      0            16 20.2  0             0
##  4 3      0            35 20.2  1             1
##  5 3      2            16  7.65 1             1
##  6 3      0            25  7.65 0             1
##  7 2      2            30 24    0             0
##  8 2      2            28 24    1             1
##  9 3      2            20  7.92 0             1
## 10 3      2            18  7.23 1             1
## #  with 1,035 more rows
…
#Question 4

library(bestglm)

## Loading required package: leaps

titanona

## # A tibble: 1,045 x 6
##    pclass Residence   age  fare Gender survived
##    <fct>  <fct>     <dbl> <dbl> <fct>     <dbl>
##  1 3      0            42  7.55 0             0
##  2 3      0            13 20.2  0             0
##  3 3      0            16 20.2  0             0
##  4 3      0            35 20.2  1             1
##  5 3      2            16  7.65 1             1
##  6 3      0            25  7.65 0             1
##  7 2      2            30 24    0             0
##  8 2      2            28 24    1             1
##  9 3      2            20  7.92 0             1
## 10 3      2            18  7.23 1             1
## #  with 1,035 more rows
…
